ウェブスクレイピングによるデータ取得
…
無事，22個のファイルへのパスが取得できた．

list.files()関数はRでのファイル読み込みに伴う「面倒さ」を解決してくれる非常に便利な関数なので，使いこなせるようになることが望ましい．日本語での解説記事もウェブに転がっているので，たとえば この記事 を参照し，色々と試してみてほしい．

4.2 エクセルファイルの読み込み

このデータセットはやや不親切で，データがエクセルファイルで提供されている．本来，データセットを提供する際には不要な情報を含むエクセルではなく.csvや.txtを用いることが望ましいが，世の中にはこうしたデータセットもある (絶対真似しないように)．こうしたファイルをみると小一時間文句を言いたくなるが，ぐっとこらえてコードを考える．

Rでエクセルファイルを読み込む方法はいくつかあるが，ここでは羽鳥教の神器の1つであるreadxlパッケージを用いる． aid_files_pathに保存したファイルパスを1つ読み込むには，次のようにすればよい．

library(readxl) ## load package
tmp_dat = read_excel(aid_files_path[1]) ## 最初のファイルパスを読み込む
tmp_dat ## 読み込めたか確認

## # A tibble: 3,891 × 22
##    `project id` `event id`  rname recipient_id dname donor_id  year
##           <dbl>      <dbl>  <chr>        <dbl> <chr>    <dbl> <dbl>
## 1           598     598.01 ANGOLA            9  AFDB       60  1991
## 2           598     598.02 ANGOLA            9  AFDB       60  1991
## 3           598     598.03 ANGOLA            9  AFDB       60  1991
## 4           598     598.04 ANGOLA            9  AFDB       60  1991
## 5           598     598.05 ANGOLA            9  AFDB       60  1991
## 6           598     598.06 ANGOLA            9  AFDB       60  1991
## 7           598     598.07 ANGOLA            9  AFDB       60  1991
## 8           598     598.08 ANGOLA            9  AFDB       60  1991
## 9           598     598.09 ANGOLA            9  AFDB       60  1991
## 10          598     598.10 ANGOLA            9  AFDB       60  1991
## # ... with 3,881 more rows, and 15 more variables: loctext <chr>,
## #   numbloc <dbl>, lat <dbl>, long <dbl>, first <chr>, second <chr>,
## #   precision <dbl>, comtorig <dbl>, origtyp <chr>, usdcr <dbl>,
## #   usdco <dbl>, crspcode <dbl>, src <chr>, data_source_id <dbl>,
## #   oecd_id <dbl>
…
このコードではまず，tmp_path = aid_files_path[i]で取得したi番目のパスにあるファイルを，tmp_dat = read_excel(tmp_path)によってtmp_datというオブジェクトに読み込んでいる． この2行のコードで，tmp_datはiが1のときにはaid_files_pathの1番目のパスにあるファイルを読み込み，iが2のときには2番目のパスにあるファイルを読み込む，といった具合に，逐次iに入る数字に対応するパスのファイルを読み込んでいる．なお，ファイルの数が22なので，当然iの最大値の22になる．なお，ここで読み込んでいる一連のデータには一部誤植が含まれているので，col_types=rep("text", 22)という「おまじない」をしている．このデータを用いた解析をする場合にはこれが問題になるが，ここではファイルの自動読み込みが重要なので気にしないことにしておく．

ここまでの作業で22のファイルを逐次読み込むことはできるが，毎回tmp_datの中身が書き換わってしまうのため，コードを回し終わるとtmp_datの中に22番目のファイルが読み込まれた状態になってしまう．我々が今ほしいのは「22個のファイルを (縦に) 結合した大きなデータ」なので，これを得るにはどうしたらよいだろうか．

ifで始まるブロックのコードが，読み込んだファイルを逐次結合していく作業を行なってくれる．if文は条件分岐を表現する手法の一つで，「ある条件が満たされている場合には作業1を，満たされていない場合には作業2を行なう」といった命令を記述できる．ここでは，「iが1の場合にはaid_allという新たなオブジェクトにtmp_datを代入し，iが2以上の場合にはaid_allにtmp_datを結合する」という作業を行なっている．dplyr::bind_rows()関数は，引数に与えられたdata.frameオブジェクトやtibbleオブジェクトを「縦に」結合する．「横」に結合するにはdplyr::bind_cols()関数を用いればよい．この2つの関数はデフォルトのrbind()関数とcbind()関数に対応する．詳細は省略するが，dplyr::bindの方がデフォルトの関数比べて柔軟で使いやすい (ただし，行列オブジェクトには使えないので，rbind()とcbind()も覚えておくこと)．

この作業が意図した通りに実行されていれば，読み込んだ22個のファイルを縦に結合した，大きなデータがaid_allに格納されているはずなので，確認してみよう．

aid_all

## # A tibble: 69,721 × 23
##    `project id`         `event id`  rname recipient_id dname donor_id
##           <chr>              <chr>  <chr>        <chr> <chr>    <chr>
## 1           598             598.01 ANGOLA            9  AFDB       60
## 2           598             598.02 ANGOLA            9  AFDB       60
## 3           598             598.03 ANGOLA            9  AFDB       60
## 4           598             598.04 ANGOLA            9  AFDB       60
## 5           598 598.04999999999995 ANGOLA            9  AFDB       60
## 6           598 598.05999999999995 ANGOLA            9  AFDB       60
## 7           598 598.07000000000005 ANGOLA            9  AFDB       60
## 8           598 598.08000000000004 ANGOLA            9  AFDB       60
## 9           598             598.09 ANGOLA            9  AFDB       60
## 10          598              598.1 ANGOLA            9  AFDB       60
## # ... with 69,711 more rows, and 17 more variables: year <chr>,
## #   loctext <chr>, numbloc <chr>, lat <chr>, long <chr>, first <chr>,
## #   second <chr>, precision <chr>, comtorig <chr>, origtyp <chr>,
## #   usdcr <chr>, usdco <chr>, crspcode <chr>, src <chr>,
## #   data_source_id <chr>, oecd_id <chr>, Numbloc <chr>
…
なぜか25のユニークな値があるが，たくさんのデータがきちんと読み込めている．なお，NAは欠測 (欠損) 値 (missing value) を示すので，無視してよい．"AFRICA ("と"GLOBAL"はコードブック (説明書) にも記載がないので何かわからないが，2つ合わせても4行しかないので (とりあえず) 無視しておこう．

ちなみに，dplyr::distinct()関数もunique()関数と類似の働きをする．上でunique(aid_all$rname)と書いた部分をdplyrパッケージを活用して書くと，次のようになる．

aid_all %>% select(rname) %>% distinct

## # A tibble: 25 × 1
##                       rname
##                       <chr>
## 1                    ANGOLA
## 2                 BURUNDI  
## 3  CENTRAL AFRICAN REPUBLIC
## 4                      CHAD
## 5                      <NA>
## 6                   COMOROS
## 7        CONGO, REPUBLIC OF
## 8                  DJIBOUTI
## 9                  AFRICA (
## 10                   GLOBAL
## # ... with 15 more rows
…
