APIによるデータ取得
…
json_url = "https://comtrade.un.org/data/cache/partnerAreas.json"
curl = getCurlHandle()
reporters = RJSONIO::fromJSON(getURL(json_url, curl=curl))
reporters = t(sapply(reporters$results,rbind))
reporters_df = as.data.frame(reporters)
reporters_df = data_frame(ccode = unlist(reporters_df[,1]), country = unlist(reporters_df[,2]))
## Save as csv
csv_path = file.path(dir_path, "reporters.csv") # 修正
write_csv(reporters_df, path = csv_path)        # 修正
## Read info from local csv
reporters = read_csv(csv_path, skip=1)          # 修正
names(reporters) = c("ccode", "cname")
reporters

## # A tibble: 292 × 2
##    ccode                    cname
##    <int>                    <chr>
## 1      0                    World
## 2      4              Afghanistan
## 3    472 Africa CAMEU region, nes
## 4      8                  Albania
## 5     12                  Algeria
## 6     16           American Samoa
## 7     20                  Andorra
## 8     24                   Angola
## 9    660                 Anguilla
## 10    10               Antarctica
## # ... with 282 more rows
…
##                                                      count.started 
##                                "2017-02-16T01:39:20.4498897-05:00" 
##                                                     count.finished 
##                                "2017-02-16T01:39:20.7059153-05:00" 
##                                              count.durationSeconds 
##                                                        "0.2560256" 
##                                               datasetTimer.started 
##                                "2017-02-16T01:39:20.4498897-05:00" 
##                                              datasetTimer.finished 
##                                "2017-02-16T01:39:21.4609908-05:00" 
##                                       datasetTimer.durationSeconds 
##                                                        "1.0111011" 
## 
## $data
## # A tibble: 433 × 35
##    pfCode    yr period periodDesc aggrLevel IsLeaf rgCode rgDesc rtCode
##    <fctr> <int>  <int>      <int>     <int>  <int>  <int> <fctr>  <int>
## 1      H4  2016   2016       2016         0      0      1 Import    392
## 2      H4  2016   2016       2016         0      0      2 Export    392
## 3      H4  2016   2016       2016         0      0      1 Import    392
## 4      H4  2016   2016       2016         0      0      2 Export    392
## 5      H4  2016   2016       2016         0      0      1 Import    392
## 6      H4  2016   2016       2016         0      0      2 Export    392
## 7      H4  2016   2016       2016         0      0      1 Import    392
## 8      H4  2016   2016       2016         0      0      2 Export    392
## 9      H4  2016   2016       2016         0      0      1 Import    392
## 10     H4  2016   2016       2016         0      0      2 Export    392
## # ... with 423 more rows, and 26 more variables: rtTitle <fctr>,
## #   rt3ISO <fctr>, ptCode <int>, ptTitle <fctr>, pt3ISO <fctr>,
## #   ptCode2 <lgl>, ptTitle2 <lgl>, pt3ISO2 <lgl>, cstCode <lgl>,
## #   cstDesc <lgl>, motCode <lgl>, motDesc <lgl>, cmdCode <fctr>,
## #   cmdDescE <fctr>, qtCode <int>, qtDesc <fctr>, qtAltCode <lgl>,
## #   qtAltDesc <lgl>, TradeQuantity <lgl>, AltQuantity <lgl>,
## #   NetWeight <lgl>, GrossWeight <lgl>, TradeValue <dbl>, CIFValue <lgl>,
## #   FOBValue <lgl>, estCode <int>

これだけで，Comtradeのデータを取得できた．さて，上述の通り，(return.url = TRUEと指定しない限り) get.Comtrade.data()関数はリストオブジェクトを返し，2つ目の要素にデータをtibbleクラスとして格納している (データが見つからなかったり取得できなかったりした場合はnullになる)． たとえば，上で取得したjp_sampleというオブジェクトの2つ目の要素には，取得した日本の貿易データがtibbleクラスで格納されている． したがって，次のコードでjp_sampleの2番目の要素を取得すれば，jp_tibbleにtibbleを取り出すことができる．

(jp_tibble = jp_sample[[2]])

## # A tibble: 433 × 35
##    pfCode    yr period periodDesc aggrLevel IsLeaf rgCode rgDesc rtCode
##    <fctr> <int>  <int>      <int>     <int>  <int>  <int> <fctr>  <int>
## 1      H4  2016   2016       2016         0      0      1 Import    392
## 2      H4  2016   2016       2016         0      0      2 Export    392
## 3      H4  2016   2016       2016         0      0      1 Import    392
## 4      H4  2016   2016       2016         0      0      2 Export    392
## 5      H4  2016   2016       2016         0      0      1 Import    392
## 6      H4  2016   2016       2016         0      0      2 Export    392
## 7      H4  2016   2016       2016         0      0      1 Import    392
## 8      H4  2016   2016       2016         0      0      2 Export    392
## 9      H4  2016   2016       2016         0      0      1 Import    392
## 10     H4  2016   2016       2016         0      0      2 Export    392
## # ... with 423 more rows, and 26 more variables: rtTitle <fctr>,
## #   rt3ISO <fctr>, ptCode <int>, ptTitle <fctr>, pt3ISO <fctr>,
## #   ptCode2 <lgl>, ptTitle2 <lgl>, pt3ISO2 <lgl>, cstCode <lgl>,
## #   cstDesc <lgl>, motCode <lgl>, motDesc <lgl>, cmdCode <fctr>,
## #   cmdDescE <fctr>, qtCode <int>, qtDesc <fctr>, qtAltCode <lgl>,
## #   qtAltDesc <lgl>, TradeQuantity <lgl>, AltQuantity <lgl>,
## #   NetWeight <lgl>, GrossWeight <lgl>, TradeValue <dbl>, CIFValue <lgl>,
## #   FOBValue <lgl>, estCode <int>
…
(jp_tibble_2 = read_csv(jp_url)) # でもちゃんと読み込める

## # A tibble: 433 × 35
##    pfCode    yr period periodDesc aggrLevel IsLeaf rgCode rgDesc rtCode
##     <chr> <int>  <int>      <int>     <int>  <int>  <int>  <chr>  <int>
## 1      H4  2016   2016       2016         0      0      1 Import    392
## 2      H4  2016   2016       2016         0      0      2 Export    392
## 3      H4  2016   2016       2016         0      0      1 Import    392
## 4      H4  2016   2016       2016         0      0      2 Export    392
## 5      H4  2016   2016       2016         0      0      1 Import    392
## 6      H4  2016   2016       2016         0      0      2 Export    392
## 7      H4  2016   2016       2016         0      0      1 Import    392
## 8      H4  2016   2016       2016         0      0      2 Export    392
## 9      H4  2016   2016       2016         0      0      1 Import    392
## 10     H4  2016   2016       2016         0      0      2 Export    392
## # ... with 423 more rows, and 26 more variables: rtTitle <chr>,
## #   rt3ISO <chr>, ptCode <int>, ptTitle <chr>, pt3ISO <chr>,
## #   ptCode2 <chr>, ptTitle2 <chr>, pt3ISO2 <chr>, cstCode <chr>,
## #   cstDesc <chr>, motCode <chr>, motDesc <chr>, cmdCode <chr>,
## #   cmdDescE <chr>, qtCode <int>, qtDesc <chr>, qtAltCode <chr>,
## #   qtAltDesc <chr>, TradeQuantity <chr>, AltQuantity <chr>,
## #   NetWeight <chr>, GrossWeight <chr>, TradeValue <dbl>, CIFValue <chr>,
## #   FOBValue <chr>, estCode <int>
…
